<?xml version="1.0" standalone="no"?>
<!DOCTYPE svg PUBLIC "-//W3C//DTD SVG 1.1//EN" "http://www.w3.org/Graphics/SVG/1.1/DTD/svg11.dtd" >
<svg xmlns="http://www.w3.org/2000/svg">
<metadata>Generated by IcoMoon</metadata>
<defs>
<font id="icomoon" horiz-adv-x="1024">
<font-face units-per-em="1024" ascent="960" descent="-64" />
<missing-glyph horiz-adv-x="1024" />
<glyph unicode="&#x20;" horiz-adv-x="512" d="" />
<glyph unicode="&#xe900;" glyph-name="1" d="M682.624 694.443h189.611l-227.584 265.557v-227.584c0-22.741 19.115-37.973 37.973-37.973zM606.933 732.416v227.584h-379.243c-41.856 0-75.947-34.091-75.947-75.947v-872.107c0-41.664 34.091-75.947 75.947-75.947h568.832c41.621 0 75.712 34.283 75.712 75.947v644.779h-189.611c-41.664 0-75.691 34.027-75.691 75.691zM265.429 808.363h265.557v-37.973h-265.557v37.973zM265.429 694.443h265.557v-37.739h-265.557v37.739zM758.571 87.872h-493.141v37.739h493.141v-37.739zM758.571 201.557h-493.141v37.973h493.141v-37.973zM758.571 315.221h-493.141v37.973h493.141v-37.973zM758.571 429.141h-493.141v37.973h493.141v-37.973zM758.571 542.805h-493.141v37.973h493.141v-37.973z" />
<glyph unicode="&#xe901;" glyph-name="2" d="M606.933 732.416v227.584h-379.243c-41.856 0-75.947-34.091-75.947-75.947v-872.107c0-41.664 34.091-75.947 75.947-75.947h568.832c41.621 0 75.712 34.283 75.712 75.947v644.779h-189.611c-41.664 0-75.691 34.027-75.691 75.691zM720.597 353.195v-75.712h-37.973v49.259l-144.064-155.584-26.453 26.688-57.067 49.259-113.664-121.493h379.221v-37.739h-417.195v303.296h37.973v-208.469l109.973 117.376 26.496-26.453 56.832-53.184 121.493 129.088h-49.237v37.973h113.664v-34.304zM682.624 694.443h189.611l-227.584 265.557v-227.584c0-22.741 19.115-37.973 37.973-37.973z" />
<glyph unicode="&#xe902;" glyph-name="3" d="M682.624 694.443h189.611l-227.584 265.557v-227.584c0-22.741 19.115-37.973 37.973-37.973zM606.933 732.416v227.584h-379.243c-41.856 0-75.947-34.091-75.947-75.947v-872.107c0-41.664 34.091-75.947 75.947-75.947h568.832c41.621 0 75.712 34.283 75.712 75.947v644.779h-189.611c-41.664 0-75.691 34.027-75.691 75.691zM417.301 125.611h-113.899v151.872h113.899v-151.872zM568.96 125.611h-113.92v341.504h113.899v-341.504zM720.597 125.611h-113.664v227.584h113.664v-227.584z" />
<glyph unicode="&#xe903;" glyph-name="4" d="M303.403 353.195h37.973v-37.973h-37.973v37.973zM303.403 163.584h37.973v-37.973h-37.973v37.973zM303.403 542.805h37.973v-37.973h-37.973v37.973zM682.624 694.443h189.611l-227.584 265.557v-227.584c0-22.741 19.115-37.973 37.973-37.973zM606.933 732.416v227.584h-379.243c-41.856 0-75.947-34.091-75.947-75.947v-872.107c0-41.664 34.091-75.947 75.947-75.947h568.832c41.621 0 75.712 34.283 75.712 75.947v644.779h-189.611c-41.664 0-75.691 34.027-75.691 75.691zM379.349 87.872h-113.92v113.664h113.899v-113.664zM379.349 277.483h-113.92v113.664h113.899v-113.664zM379.349 467.115h-113.92v113.664h113.899v-113.664zM758.571 125.611h-303.531v37.973h303.531v-37.973zM758.571 315.221h-303.531v37.973h303.531v-37.973zM758.571 504.832h-303.531v37.973h303.531v-37.973z" />
<glyph unicode="&#xe904;" glyph-name="5" d="M682.624 694.443h189.611l-227.584 265.557v-227.584c0-22.741 19.115-37.973 37.973-37.973zM606.933 732.416v227.584h-379.243c-41.856 0-75.947-34.091-75.947-75.947v-872.107c0-41.664 34.091-75.947 75.947-75.947h568.832c41.621 0 75.712 34.283 75.712 75.947v644.779h-189.611c-41.664 0-75.691 34.027-75.691 75.691zM512.128 49.899l-170.752 170.517 30.379 30.379 121.259-125.184v417.195h37.973v-417.195l121.301 121.493 30.336-30.379-170.496-166.827z" />
<glyph unicode="&#xe905;" glyph-name="alarm" d="M941.568 726.147c30.279 24.969 47.914 61.797 47.914 101.543 0 72.954-59.356 132.31-132.31 132.31-43.937 0-84.301-21.814-108.985-57.939-72.966 37.948-154.255 57.939-236.187 57.939v-34.518c81.61 0 162.542-21.278 234.079-61.523l15.681-8.823 8.168 16.027c17.063 33.506 50.486 54.308 87.254 54.308 53.927 0 97.792-43.877 97.792-97.804 0-33.732-17.265-64.643-46.187-82.694l-15.42-9.621 10.407-14.896c56.070-80.301 85.706-174.521 85.706-272.467 0-75.871-17.289-148.409-51.367-215.6-32.518-64.107-80.039-121.058-137.418-164.697l20.897-27.469c61.511 46.783 112.449 107.83 147.313 176.557 36.554 72.085 55.094 149.885 55.094 231.222 0 99.376-28.446 195.167-82.432 278.147zM512-29.482c-263.287 0-477.482 214.195-477.482 477.482 0 97.947 29.636 192.167 85.718 272.467l10.407 14.896-15.42 9.621c-28.922 18.051-46.187 48.961-46.187 82.694 0 53.927 43.865 97.804 97.792 97.804 36.757 0 70.192-20.813 87.254-54.32l8.168-16.027 15.681 8.823c55.606 31.292 115.676 50.89 178.545 58.285l-4.025 34.28c-61.881-7.263-121.213-25.564-176.628-54.451-24.683 36.126-65.048 57.927-108.985 57.927-72.954 0-132.31-59.356-132.31-132.31 0-39.745 17.634-76.562 47.914-101.543-53.998-82.98-82.444-178.771-82.444-278.147 0-282.314 229.686-512 512-512 97.328 0 192.036 27.457 273.884 79.384l-18.492 29.148c-76.312-48.426-164.626-74.014-255.393-74.014zM213.123 758.927c-41.46-39.638-74.085-86.385-96.947-138.943-23.647-54.343-35.638-112.199-35.638-171.996s11.99-117.653 35.638-171.996c22.873-52.557 55.487-99.304 96.923-138.919 80.991-77.741 187.142-120.558 298.901-120.558s217.91 42.817 298.877 120.522c41.46 39.638 74.085 86.385 96.947 138.943 23.647 54.343 35.638 112.199 35.638 171.996s-11.99 117.653-35.638 171.996c-22.873 52.557-55.487 99.304-96.899 138.895-80.741 77.776-186.904 120.594-298.925 120.594-111.759 0-217.91-42.817-298.877-120.534zM529.253 844.574c90.791-3.894 176.545-38.436 244.772-98.614l-78.634-78.634 24.409-24.409 79.158 79.158c67.084-69.715 105.52-159.78 109.592-256.822h-143.431v-34.518h143.431c-4.072-97.018-42.508-187.082-109.604-256.798l-79.158 79.158-24.409-24.409 78.622-78.622c-68.382-60.166-154.148-94.732-244.748-98.625v120.415h-34.518v-120.415c-90.6 3.905-176.354 38.46-244.748 98.637l78.622 78.622-24.409 24.409-79.158-79.158c-67.084 69.703-105.52 159.768-109.604 256.798h120.415v34.518h-120.415c4.084 97.018 42.508 187.082 109.604 256.798l79.158-79.158 24.409 24.409-78.622 78.622c68.382 60.166 154.148 94.732 244.748 98.637v-120.415h34.518v120.415zM166.829 890.975c-34.899 0-63.286-28.386-63.286-63.286s28.386-63.286 63.286-63.286c34.899 0 63.286 28.386 63.286 63.286s-28.386 63.286-63.286 63.286zM166.829 798.922c-15.86 0-28.767 12.907-28.767 28.767s12.907 28.767 28.767 28.767c15.86 0 28.767-12.907 28.767-28.767s-12.907-28.767-28.767-28.767zM857.171 764.404c34.887 0 63.286 28.386 63.286 63.286s-28.386 63.286-63.286 63.286c-34.899 0-63.286-28.386-63.286-63.286s28.386-63.286 63.286-63.286zM857.171 856.445c15.86 0 28.767-12.907 28.767-28.767s-12.907-28.767-28.767-28.767c-15.86 0-28.767 12.907-28.767 28.767s12.907 28.767 28.767 28.767zM398.61 287.28l130.643 154.398v224.935h-34.506v-212.289l-122.487-144.741zM373.927 764.404h46.020v-34.518h-46.020v34.518zM604.041 764.404h46.020v-34.518h-46.020v34.518zM373.927 166.114h46.020v-34.518h-46.020v34.518zM189.845 350.196h46.020v-34.518h-46.020v34.518zM189.845 580.31h46.020v-34.518h-46.020v34.518zM765.119 350.196h46.020v-34.518h-46.020v34.518zM765.119 580.31h46.020v-34.518h-46.020v34.518zM604.041 166.114h46.020v-34.518h-46.020v34.518z" />
<glyph unicode="&#xe906;" glyph-name="credit" d="M870.4 396.8v221.863c0 47.056-38.281 85.337-85.337 85.337h-51.2v170.663c0 47.056-38.281 85.337-85.337 85.337h-477.863c-47.056 0-85.337-38.281-85.337-85.337v-505.82l-81.396-97.649c-2.548-3.072-3.941-6.93-3.941-10.919v-324.275h34.137v318.083l51.2 61.44v-157.66c0-6.894 4.144-13.121 10.526-15.765 6.382-2.631 13.717-1.191 18.599 3.703l68.263 68.263c3.203 3.191 5.001 7.549 5.001 12.062v110.937c0 14.11 11.49 25.6 25.6 25.6s25.6-11.49 25.6-25.6v-291.602l-63.262-63.262c-3.203-3.191-5.001-7.537-5.001-12.062v-34.137h34.137v27.065l63.262 63.262c3.203 3.191 5.001 7.549 5.001 12.062v17.063h375.463c47.056 0 85.337 38.281 85.337 85.337v170.663h51.2c47.068 0.012 85.349 38.293 85.349 85.349zM836.263 533.337h-443.725v34.137h443.737v-34.137zM785.063 669.863c28.231 0 51.2-22.969 51.2-51.2v-17.063h-443.725v68.263h392.525zM392.537 704c0 18.825 15.312 34.137 34.137 34.137s34.137-15.312 34.137-34.137h-68.275zM119.463 874.663c0 28.231 22.969 51.2 51.2 51.2h477.863c28.231 0 51.2-22.969 51.2-51.2v-34.137h-580.263v34.137zM699.737 140.8c0-28.231-22.969-51.2-51.2-51.2h-375.463v85.337h426.663v-34.137zM699.737 209.063h-426.663v128c0 32.935-26.791 59.737-59.737 59.737-32.935 0-59.737-26.791-59.737-59.737v-103.865l-34.137-34.137v607.339h580.263v-102.4h-204.8c0 37.65-30.613 68.263-68.263 68.263s-68.263-30.613-68.263-68.263v-392.525c0-37.65 30.613-68.263 68.263-68.263s68.263 30.613 68.263 68.263h204.8v-102.412zM392.537 311.463h68.263c0-18.825-15.312-34.137-34.137-34.137-18.825 0.012-34.125 15.312-34.125 34.137zM392.537 345.6v153.6h443.737v-102.4c0-28.231-22.969-51.2-51.2-51.2h-392.537zM972.8 840.537h-34.137c0-28.231-22.969-51.2-51.2-51.2v-34.137c28.231 0 51.2-22.969 51.2-51.2h34.137c0 28.231 22.969 51.2 51.2 51.2v34.137c-28.231 0-51.2 22.969-51.2 51.2zM955.737 754.676c-4.989 6.704-10.883 12.609-17.599 17.599 6.704 4.989 12.609 10.883 17.599 17.599 4.989-6.704 10.883-12.609 17.599-17.599-6.716-4.989-12.621-10.895-17.599-17.599zM870.4 277.337h-34.137c0-28.231-22.969-51.2-51.2-51.2v-34.137c28.231 0 51.2-22.969 51.2-51.2h34.137c0 28.231 22.969 51.2 51.2 51.2v34.137c-28.231 0-51.2 22.969-51.2 51.2zM853.337 191.476c-4.989 6.704-10.883 12.609-17.599 17.599 6.704 4.989 12.609 10.883 17.599 17.599 4.989-6.704 10.883-12.609 17.599-17.599-6.716-4.989-12.621-10.895-17.599-17.599zM273.063 567.463h-34.137c0-28.231-22.969-51.2-51.2-51.2v-34.137c28.231 0 51.2-22.969 51.2-51.2h34.137c0 28.231 22.969 51.2 51.2 51.2v34.137c-28.22 0-51.2 22.98-51.2 51.2zM256 481.601c-4.989 6.704-10.883 12.609-17.599 17.599 6.704 4.989 12.609 10.883 17.599 17.599 4.989-6.704 10.883-12.609 17.599-17.599-6.716-4.989-12.609-10.883-17.599-17.599zM921.6 567.463h34.137v-34.137h-34.137v34.137zM989.863 567.463h34.137v-34.137h-34.137v34.137zM921.6 499.2h34.137v-34.137h-34.137v34.137zM921.6 635.737h34.137v-34.137h-34.137v34.137zM768 465.063h34.137v-34.137h-34.137v34.137zM699.737 465.063h34.137v-34.137h-34.137v34.137zM631.463 465.063h34.137v-34.137h-34.137v34.137z" />
<glyph unicode="&#xe907;" glyph-name="file" horiz-adv-x="1004" d="M618.889 584.49h-426.675c-9.43 0-17.087-7.573-17.087-16.979 0-9.43 7.656-17.087 17.087-17.087h426.663c9.407 0 17.087 7.656 17.087 17.087 0.012 9.407-7.668 16.979-17.075 16.979zM192.214 686.913h170.663c9.407 0 17.087 7.68 17.087 17.087s-7.68 17.087-17.087 17.087h-170.663c-9.43 0-17.087-7.68-17.087-17.087s7.668-17.087 17.087-17.087zM618.889 448h-426.675c-9.43 0-17.087-7.656-17.087-17.087 0-9.407 7.656-17.087 17.087-17.087h426.663c9.407 0 17.087 7.68 17.087 17.087 0.012 9.43-7.668 17.087-17.075 17.087zM482.292 311.51h-290.078c-9.43 0-17.087-7.68-17.087-17.087 0-9.43 7.656-17.087 17.087-17.087h290.066c9.43 0 17.087 7.656 17.087 17.087 0.012 9.407-7.644 17.087-17.075 17.087zM431.128 140.848c9.407 0 17.087 7.573 17.087 16.979 0 9.43-7.68 17.087-17.087 17.087h-238.913c-9.43 0-17.087-7.656-17.087-17.087 0-9.407 7.656-16.979 17.087-16.979h238.913zM38.638 925.827h494.913v-238.913h238.913v-307.152h34.173v331.324l-248.999 248.915h-553.174v-1024h494.913v34.173h-460.74v955.654zM567.617 901.763l180.676-180.676h-180.676v180.676zM989.041 325.763l-48.664 48.664c-19.242 19.242-52.819 19.242-72.085 0l-262.656-262.68-36.185-132.739-8.835-8.835c-6.656-6.68-6.656-17.348-0.167-24.004l-0.060-0.345 0.321 0.083c3.334-3.263 7.68-4.929 11.931-4.929 4.417 0 8.752 1.667 12.074 5.013l8.835 8.835 132.846 36.245 262.656 262.68c9.597 9.573 14.931 22.397 14.931 35.995-0.012 13.681-5.346 26.422-14.943 36.019zM609.054-5.501l20.587 75.502 54.998-54.915-75.585-20.587zM717.467 30.506l-72.43 72.406 174.842 174.759 72.406-72.43-174.818-174.735zM964.894 277.825l-48.509-48.402-72.347 72.406 48.426 48.426c6.335 6.418 17.408 6.418 23.743 0l48.688-48.58c3.155-3.179 4.906-7.43 4.906-11.931s-1.75-8.74-4.906-11.919z" />
<glyph unicode="&#xe908;" glyph-name="logo" d="M679.976 258.932h42.888v-42.888h-42.888v42.888zM679.976 403.117h42.888v-42.888h-42.888v42.888zM679.976 490.37h42.888v-42.888h-42.888v42.888zM679.976 581.319h42.888v-42.888h-42.888v42.888zM769.45 673.001h42.888v-42.888h-42.888v42.888zM769.45 581.319h42.888v-42.888h-42.888v42.888zM679.976 673.001h42.888v-42.888h-42.888v42.888zM769.45 403.117h42.888v-42.888h-42.888v42.888zM326.776 555.148h275.15v198.43h62.171v82.013h136.245l17.195-80.697h62.171l-37.037 191.807c-410.026-78.635-672.928-302.319-836.023-624.361h320.126v232.807zM769.45 258.932h42.888v-42.888h-42.888v42.888zM769.45 490.37h42.888v-42.888h-42.888v42.888zM585.342 490.37h42.888v-42.888h-42.888v42.888zM272.57 258.932h42.888v-42.888h-42.888v42.888zM88.463 258.932h42.888v-42.888h-42.888v42.888zM183.097 258.932h42.888v-42.888h-42.888v42.888zM894.258 679.49v-496.055h124.343zM522.572 274.984h-57.131v-112.72h-28.246v112.72h-57.131v-112.72h-361.512l11.902-37.795h586.007v-25.853h-410.065l10.586-35.561h219.588l206.356-113.757c58.381 89.234 140.354 157.962 238.113 212.979h-358.466v112.706zM585.342 403.117h42.888v-42.888h-42.888v42.888zM397.538 403.117h42.875v-42.888h-42.875v42.888zM492.172 490.37h42.888v-42.888h-42.888v42.888zM585.342 258.932h42.888v-42.888h-42.888v42.888zM492.172 403.117h42.888v-42.888h-42.888v42.888zM397.538 490.37h42.875v-42.888h-42.875v42.888z" />
</font></defs></svg>