<?xml version="1.0" encoding="utf-8"?>
<!-- Generator: Adobe Illustrator 19.2.1, SVG Export Plug-In . SVG Version: 6.00 Build 0)  -->
<svg version="1.1" id="Слой_1" xmlns="http://www.w3.org/2000/svg" xmlns:xlink="http://www.w3.org/1999/xlink" x="0px" y="0px"
	 viewBox="0 0 286 205.9" style="enable-background:new 0 0 286 205.9;" xml:space="preserve">
<style type="text/css">
	.st0{clip-path:url(#SVGID_2_);fill:#828282;}
	.st1{clip-path:url(#SVGID_2_);fill:#13110C;}
	.st2{clip-path:url(#SVGID_2_);fill:#CFCFCF;}
	.st3{clip-path:url(#SVGID_2_);fill:#1D1D1B;}
	.st4{clip-path:url(#SVGID_2_);fill:#C6C6C5;}
	.st5{clip-path:url(#SVGID_2_);fill:#61892E;}
</style>
<g>
	<defs>
		<rect id="SVGID_1_" width="286" height="205.9"/>
	</defs>
	<clipPath id="SVGID_2_">
		<use xlink:href="#SVGID_1_"  style="overflow:visible;"/>
	</clipPath>
	<path class="st0" d="M180,43.3c-0.2,0-0.5,0-0.7,0c-19.9,0.4-36,16.6-36,36.7c0,11.3,5.1,21.4,13.1,28.1l-10.8,28.8l21.9-22.4
		c3.7,1.3,7.7,2.1,11.8,2.2c0.2,0,0.5,0,0.7,0c20.3,0,36.7-16.4,36.7-36.7C216.7,59.7,200.2,43.3,180,43.3 M182.2,99.3v6.4H176v-6
		c-4.2-0.2-8.3-1.3-10.7-2.7l1.9-7.4c2.6,1.4,6.4,2.8,10.5,2.8c3.6,0,6.1-1.4,6.1-3.9c0-2.4-2-3.9-6.7-5.5
		c-6.8-2.3-11.4-5.4-11.4-11.6c0-5.6,3.9-9.9,10.7-11.2v-6h6.2v5.6c4.2,0.2,7.1,1.1,9.2,2.1l-1.8,7.1c-1.6-0.7-4.5-2.1-9.1-2.1
		c-4.1,0-5.4,1.8-5.4,3.5c0,2.1,2.2,3.4,7.6,5.4c7.5,2.6,10.5,6.1,10.5,11.8C193.4,93.2,189.5,98,182.2,99.3"/>
	<path class="st1" d="M113,15c-9.6,0-17.4,7.8-17.4,17.4c0,9.6,7.8,17.4,17.4,17.4c9.6,0,17.4-7.8,17.4-17.4
		C130.5,22.8,122.6,15,113,15 M113,24.6c4.3,0,7.8,3.5,7.8,7.8c0,4.3-3.5,7.8-7.8,7.8s-7.8-3.5-7.8-7.8
		C105.3,28.1,108.8,24.6,113,24.6"/>
	<path class="st2" d="M106.6,7.4c-1,0.3-2,0.6-3,1l-4.4-6L88.8,10l4.4,6c-0.7,0.8-1.3,1.6-1.8,2.5l-7.1-2.3l-4,12.3l7.1,2.3
		c0,0.5-0.1,1-0.1,1.6c0,0.5,0,1,0.1,1.6l-7.1,2.3l4,12.3l7.1-2.3c0.6,0.9,1.2,1.7,1.8,2.5l-4.4,6l10.5,7.6l4.4-6c1,0.4,1.9,0.7,3,1
		v7.4h13v-7.4c1-0.3,2-0.6,3-1l4.4,6l10.5-7.6l-4.4-6c0.7-0.8,1.3-1.6,1.8-2.5l7.1,2.3l4-12.3l-7.1-2.3c0-0.5,0.1-1,0.1-1.6
		c0-0.5,0-1-0.1-1.6l7.1-2.3l-4-12.3l-7.1,2.3c-0.6-0.9-1.2-1.7-1.8-2.5l4.4-6l-10.5-7.6l-4.4,6c-1-0.4-1.9-0.7-3-1V0h-13V7.4z
		 M113,13.2c10.6,0,19.1,8.6,19.1,19.1c0,10.6-8.6,19.1-19.1,19.1c-10.6,0-19.1-8.6-19.1-19.1C93.9,21.8,102.5,13.2,113,13.2"/>
	<rect x="216.6" y="182.2" class="st3" width="13.2" height="23.2"/>
	<rect x="203.4" y="196.9" class="st4" width="13.2" height="8.5"/>
	<rect x="190.2" y="181.5" class="st5" width="13.2" height="24"/>
	<rect x="177.1" y="157.5" class="st3" width="13.2" height="48"/>
	<rect x="163.9" y="140.5" class="st4" width="13.2" height="65"/>
	<rect x="150.8" y="177.6" class="st5" width="13.1" height="27.9"/>
	<rect x="137.6" y="193.8" class="st4" width="13.2" height="11.6"/>
	<path class="st4" d="M199.4,62v11.5h3.2v-8.9L199.4,62z M204.3,65.9v7.6h3.2V68l-0.3,0.3L204.3,65.9z"/>
	<path class="st4" d="M198.6,63.4c0,10.3,8.3,18.6,18.6,18.6s18.6-8.3,18.6-18.6c0-10.3-8.3-18.6-18.6-18.6S198.6,53.1,198.6,63.4"
		/>
	<path class="st3" d="M282.1,51.5l-40.8,11.3c-0.1-3.5-0.9-6.9-2.5-10l40.8-11.3c2.8-0.7,5.5,1,6.2,3.8
		C286.5,48,284.9,50.8,282.1,51.5"/>
	<path class="st3" d="M234.9,74c5.9-9.7,2.7-22.3-7-28.2c-9.7-5.9-22.3-2.7-28.2,7c-5.9,9.7-2.7,22.3,7,28.2
		C216.5,86.9,229.1,83.8,234.9,74 M225.3,50.2c7.3,4.4,9.6,13.9,5.2,21.1c-4.4,7.3-13.9,9.6-21.1,5.2c-7.3-4.4-9.6-13.9-5.2-21.1
		C208.6,48.2,218,45.9,225.3,50.2"/>
	<path class="st3" d="M207.1,57.2L210,59c-2.4,4-1.1,9.3,2.9,11.7l-1.8,2.9C205.5,70.3,203.7,62.9,207.1,57.2"/>
	<path class="st5" d="M94.9,75.2c-9.6-2.4-19.3,3.4-21.8,12.9c-2.4,9.6,3.4,19.3,12.9,21.8c9.6,2.4,19.3-3.4,21.8-12.9
		C110.2,87.4,104.4,77.7,94.9,75.2"/>
	<path class="st5" d="M74,125.4c-4.7-1.2-9.6,1.7-10.8,6.4c-1.2,4.7,1.7,9.6,6.4,10.8c4.7,1.2,9.6-1.7,10.8-6.4
		C81.6,131.4,78.7,126.6,74,125.4"/>
	<path class="st5" d="M46.6,103.3c-4.7-1.2-9.5,1.7-10.8,6.4c-1.2,4.7,1.7,9.6,6.4,10.8c4.7,1.2,9.6-1.7,10.8-6.4
		C54.2,109.3,51.4,104.5,46.6,103.3"/>
	<path class="st5" d="M136.5,126c-4-7.7,1.7-12.4,2.1-16.4c1.8-18.5-4.5-29.7-12.9-38.7c-14-14.8-32-17.6-43.8-17.5
		c-30.2,0.2-42.4,9.8-51.6,20.1C17,94.1,18.4,112,18.4,112c0.4,11.2,12.6,33.3,12.6,33.3c12.3,17.6,0.8,54.1,0.8,54.1
		c24.8,5.6,55.6,6.5,55.6,6.5c0.9-5.4,7.8-15.5,7.8-15.5c5-6.3,13.3-4.1,17.9-3.5c12.9,1.6,16.2-2.2,16.2-2.2
		c2.8-1.7,1.5-8.9,1.5-8.9c-1-3.7,0.7-5.6,1.7-7c2.8-4,1.2-5.8,1.2-5.8c-0.9-1.1-0.3-1.7-0.3-1.7c3.1-1,3.4-2.7,3.4-2.7l-0.1-5.7
		c-0.5-3.9,1.3-4.2,1.3-4.2c7.2-0.1,7-4.8,7-4.8C145.1,141.2,136.5,126,136.5,126 M55.6,126.2c-0.8-0.7-1.8-1.1-2.3-0.7
		c-0.5,0.3-1.7,1.9-1.4,2.9c0.3,1-0.6,2.2-2,2.6c-1.4,0.4-2.8-0.1-3.1-1.1c-0.3-1-2.1-1.7-2.7-1.8c-0.6,0-1.3,0.8-1.6,1.8
		c-0.3,1-1.6,1.6-3,1.2c-1.4-0.4-2.3-1.5-2.1-2.5c0.3-1,0-2.1-0.5-2.3c-0.5-0.3-2.5-0.5-3.2,0.3c-0.7,0.8-2.2,0.5-3.2-0.5
		c-1-1-1.3-2.5-0.6-3.2c0.7-0.8,1.1-1.8,0.7-2.3c-0.3-0.5-1.9-1.7-2.9-1.4c-1,0.3-2.2-0.6-2.6-2c-0.4-1.4,0.1-2.8,1.1-3.1
		c1-0.3,1.8-1,1.8-1.6c0-0.6-0.8-2.4-1.8-2.7c-1-0.3-1.6-1.6-1.2-3c0.4-1.4,1.5-2.3,2.5-2.1c1,0.3,2.1,0,2.4-0.5
		c0.3-0.5,0.5-2.5-0.3-3.2c-0.8-0.7-0.5-2.2,0.5-3.2c1-1,2.5-1.3,3.2-0.5c0.8,0.7,1.8,1.1,2.3,0.7c0.5-0.3,1.7-1.9,1.4-2.9
		c-0.3-1,0.6-2.2,2-2.6c1.4-0.4,2.8,0.1,3.1,1.1c0.3,1,1,1.8,1.6,1.8c0.6,0,2.4-0.8,2.7-1.8c0.3-1,1.6-1.6,3-1.2
		c1.4,0.4,2.3,1.5,2.1,2.5c-0.3,1,0,2.1,0.5,2.4c0.5,0.3,2.5,0.5,3.2-0.3c0.7-0.8,2.2-0.5,3.2,0.5c1,1,1.3,2.5,0.5,3.2
		c-0.7,0.8-1.1,1.8-0.7,2.3c0.3,0.5,1.9,1.7,2.9,1.4c1-0.3,2.2,0.6,2.6,2c0.4,1.4-0.1,2.8-1.1,3.1c-1,0.3-1.8,1-1.8,1.6
		c0,0.6,0.8,2.4,1.8,2.7c1,0.3,1.6,1.6,1.2,3c-0.4,1.4-1.5,2.3-2.5,2.1c-1-0.3-2.1,0-2.4,0.5c-0.3,0.5-0.5,2.5,0.3,3.2
		c0.8,0.7,0.5,2.2-0.5,3.2C57.8,126.7,56.4,126.9,55.6,126.2 M120.7,100.3c-0.6,2.2-2.3,3.6-3.9,3.2c-1.6-0.4-3.2,0-3.7,0.8
		c-0.4,0.8-0.8,3.9,0.4,5c1.2,1.1,0.8,3.4-0.7,5c-1.6,1.6-3.8,2-5,0.9c-1.2-1.2-2.8-1.7-3.6-1.1c-0.8,0.5-2.6,3-2.2,4.5
		c0.4,1.6-1,3.4-3.1,4c-2.2,0.6-4.3-0.2-4.8-1.8c-0.4-1.6-3.3-2.7-4.2-2.7c-0.9,0-2.1,1.2-2.5,2.8c-0.4,1.6-2.5,2.4-4.7,1.9
		c-0.3-0.1-0.5-0.2-0.8-0.2c0.2,0.1,0.4,0.2,0.5,0.4c0.8,0.8,1,1.9,0.4,2.5c-0.6,0.6-0.8,1.4-0.6,1.8c0.3,0.4,1.5,1.3,2.2,1.1
		c0.8-0.2,1.7,0.5,2,1.6c0.3,1.1-0.1,2.1-0.9,2.4c-0.8,0.2-1.4,0.8-1.4,1.2c0,0.5,0.6,1.9,1.4,2.1c0.8,0.2,1.2,1.2,0.9,2.3
		c-0.3,1.1-1.1,1.8-1.9,1.6c-0.8-0.2-1.6,0-1.8,0.4c-0.2,0.4-0.4,1.9,0.2,2.5c0.6,0.6,0.4,1.7-0.4,2.5c-0.8,0.8-1.9,1-2.5,0.4
		c-0.6-0.6-1.4-0.8-1.8-0.6c-0.4,0.3-1.3,1.5-1.1,2.2c0.2,0.8-0.5,1.7-1.6,2c-1.1,0.3-2.1-0.1-2.4-0.9c-0.2-0.8-1.6-1.3-2.1-1.4
		c-0.5,0-1,0.6-1.2,1.4c-0.2,0.8-1.3,1.2-2.3,0.9c-1.1-0.3-1.8-1.1-1.6-1.9c0.2-0.8,0-1.6-0.4-1.8c-0.4-0.2-1.9-0.4-2.5,0.2
		c-0.6,0.6-1.7,0.4-2.5-0.4c-0.8-0.8-1-1.9-0.4-2.5c0.6-0.6,0.8-1.4,0.6-1.8c-0.3-0.4-1.5-1.3-2.2-1.1c-0.8,0.2-1.7-0.5-2-1.6
		c-0.3-1.1,0.1-2.1,0.9-2.4c0.8-0.2,1.4-0.8,1.4-1.2c0-0.5-0.6-1.9-1.4-2.1c-0.8-0.2-1.2-1.3-0.9-2.3c0.3-1.1,1.1-1.8,1.9-1.6
		c0.8,0.2,1.6,0,1.8-0.4c0.2-0.4,0.4-1.9-0.2-2.5c-0.6-0.6-0.4-1.7,0.4-2.5c0.8-0.8,1.9-1,2.5-0.4c0.6,0.6,1.4,0.8,1.8,0.6
		c0.4-0.3,1.3-1.5,1.1-2.2c-0.2-0.8,0.5-1.7,1.6-2c1.1-0.3,2.1,0.1,2.3,0.9c0.2,0.8,0.8,1.4,1.2,1.4c0.5,0,1.9-0.6,2.1-1.4
		c0.2-0.8,1.2-1.2,2.3-0.9c1.1,0.3,1.8,1.1,1.6,1.9c-0.2,0.8,0,1.6,0.4,1.8c0.4,0.2,1.9,0.4,2.5-0.2c0.4-0.4,0.9-0.4,1.5-0.2
		c-1.5-0.8-2.4-2.2-2.1-3.5c0.4-1.6,0-3.2-0.8-3.7c-0.8-0.4-3.9-0.8-5,0.4c-1.1,1.2-3.4,0.8-5-0.7c-1.6-1.6-2-3.8-0.9-5
		c1.1-1.2,1.7-2.8,1.1-3.6c-0.5-0.8-3-2.6-4.5-2.2c-1.6,0.4-3.4-1-4-3.1c-0.6-2.2,0.2-4.3,1.8-4.8c1.6-0.5,2.8-1.6,2.8-2.5
		c-0.1-0.9-1.3-3.8-2.8-4.2c-1.6-0.4-2.4-2.5-1.9-4.7c0.6-2.2,2.3-3.6,3.9-3.2c1.6,0.4,3.2,0,3.7-0.8c0.4-0.8,0.8-3.9-0.4-5
		c-1.2-1.1-0.9-3.4,0.7-5c1.6-1.6,3.8-2,5-0.9c1.2,1.1,2.8,1.7,3.6,1.1c0.8-0.5,2.6-3,2.2-4.5c-0.4-1.6,1-3.4,3.1-4
		c2.2-0.6,4.3,0.2,4.8,1.8c0.4,1.6,1.6,2.8,2.5,2.8c0.9-0.1,3.8-1.3,4.2-2.8c0.4-1.6,2.5-2.4,4.7-1.9c2.2,0.6,3.6,2.3,3.2,3.9
		c-0.4,1.6,0,3.2,0.8,3.7c0.8,0.4,3.9,0.8,5-0.4c1.1-1.2,3.4-0.8,5,0.7c1.6,1.6,2,3.8,0.8,5c-1.1,1.2-1.7,2.8-1.1,3.6
		c0.5,0.8,3,2.6,4.5,2.2c1.6-0.4,3.4,1,4,3.1c0.6,2.2-0.2,4.3-1.8,4.8c-1.6,0.4-2.8,1.6-2.8,2.5c0.1,0.9,1.3,3.8,2.9,4.2
		C120.4,96,121.2,98.1,120.7,100.3"/>
	<path class="st1" d="M35.2,36.6c-10.3,0-18.7,8.4-18.7,18.7c0,10.3,8.4,18.7,18.7,18.7s18.7-8.4,18.7-18.7
		C53.9,45,45.5,36.6,35.2,36.6 M35.2,47c4.6,0,8.3,3.7,8.3,8.3c0,4.6-3.7,8.3-8.3,8.3c-4.6,0-8.3-3.7-8.3-8.3
		C26.9,50.7,30.6,47,35.2,47"/>
	<path class="st2" d="M28.3,28.5c-1.1,0.3-2.1,0.6-3.2,1l-4.7-6.4L9.1,31.3l4.7,6.4c-0.7,0.9-1.4,1.8-2,2.7L4.3,38L0,51.2l7.6,2.5
		c0,0.5-0.1,1.1-0.1,1.7c0,0.6,0,1.1,0.1,1.7L0,59.4l4.3,13.2l7.6-2.5c0.6,0.9,1.3,1.8,2,2.7l-4.7,6.4l11.2,8.2l4.7-6.4
		c1,0.4,2.1,0.8,3.2,1v7.9h13.9v-7.9c1.1-0.3,2.1-0.6,3.2-1l4.7,6.4l11.2-8.2l-4.7-6.4c0.7-0.9,1.4-1.8,2-2.7l7.6,2.5l4.3-13.2
		L62.8,57c0-0.5,0.1-1.1,0.1-1.7c0-0.6,0-1.1-0.1-1.7l7.6-2.5L66.1,38l-7.6,2.5c-0.6-0.9-1.2-1.9-2-2.7l4.7-6.4L50,23.1l-4.7,6.4
		c-1-0.4-2.1-0.8-3.2-1v-7.9H28.3V28.5z M35.2,34.8c11.3,0,20.6,9.2,20.6,20.6s-9.2,20.6-20.6,20.6s-20.6-9.2-20.6-20.6
		S23.9,34.8,35.2,34.8"/>
</g>
</svg>
