<?xml version="1.0" encoding="UTF-8"?>
<svg width="100px" height="90px" viewBox="0 0 100 90" version="1.1" xmlns="http://www.w3.org/2000/svg" xmlns:xlink="http://www.w3.org/1999/xlink">
    <!-- Generator: Sketch 49.1 (51147) - http://www.bohemiancoding.com/sketch -->
    <title>palette</title>
    <desc>Created with Sketch.</desc>
    <defs>
        <polygon id="path-1" points="0.0229885057 0.147532202 99.6289516 0.147532202 99.6289516 89.4366197 0.0229885057 89.4366197"></polygon>
    </defs>
    <g id="Курс" stroke="none" stroke-width="1" fill="none" fill-rule="evenodd">
        <g id="course-new" transform="translate(-1126.000000, -2159.000000)">
            <g id="palette" transform="translate(1126.000000, 2159.000000)">
                <path d="M25.8163304,59.5072526 C24.3889709,58.3722308 22.5976617,57.7464789 20.7752227,57.7464789 C18.2998263,57.7464789 15.9939144,58.8528639 14.4489535,60.7862321 C13.0980734,62.4777358 12.4870068,64.5941471 12.727206,66.7453869 C12.9689424,68.8993356 14.0361953,70.8311559 15.734115,72.1809534 C17.1618588,73.3179101 18.9512464,73.943662 20.7736854,73.943662 C23.2525407,73.943662 25.5584526,72.8341811 27.1014919,70.8992649 C28.451219,69.2108571 29.0622856,67.0975416 28.8220865,64.9478498 C28.5818873,62.7923532 27.5142501,60.8605329 25.8163304,59.5072526 Z M24.2267885,68.5711738 C23.3858993,69.6249291 22.1280243,70.2293969 20.7736854,70.2293969 C19.764849,70.2293969 18.813276,69.8969783 18.0219639,69.2665827 C17.1019051,68.5351843 16.5238898,67.4918776 16.3932215,66.327832 C16.2640904,65.1699782 16.5942202,64.0272167 17.322504,63.1158712 C18.1630089,62.0636638 19.4228054,61.4603569 20.7752227,61.4603569 C21.7855964,61.4603569 22.739091,61.7931625 23.5284815,62.4220103 C24.4489246,63.1549565 25.0254026,64.1982633 25.1560709,65.3619219 C25.285202,66.5201627 24.9562252,67.6598283 24.2267885,68.5711738 Z" id="Fill-1" fill="#6A878C"></path>
                <path d="M58.1124705,40.8450704 C59.3280168,40.8450704 60.5043768,40.5761685 61.6104318,40.0457159 C63.5659093,39.102431 65.0350146,37.4553582 65.7449797,35.4043522 C66.4534081,33.3653403 66.3258602,31.1723385 65.3876921,29.2304408 C64.0476713,26.4462416 61.1828391,24.6478873 58.0928773,24.6478873 C56.8727208,24.6478873 55.6948241,24.9167893 54.5887692,25.4487895 C52.6348284,26.3874314 51.1641863,28.0348911 50.4526845,30.0858972 C49.7442561,32.1260698 49.8702672,34.3190716 50.8099721,36.2629038 C52.1561398,39.0467161 55.020972,40.8450704 58.1124705,40.8450704 Z M53.9345102,31.3131735 C54.3186904,30.20197 55.1154803,29.310531 56.1765862,28.8009715 C56.7828226,28.5092419 57.4263246,28.3629902 58.0913406,28.3629902 C59.7794286,28.3629902 61.340353,29.3391623 62.0695272,30.8535252 C62.5754926,31.9008886 62.6442608,33.0813489 62.263154,34.1801712 C61.8789738,35.2894401 61.0806472,36.1828136 60.021078,36.6935339 C59.417915,36.9837158 58.7740289,37.1303544 58.1109338,37.1303544 C56.4224615,37.1303544 54.8573112,36.1507002 54.1266003,34.6363372 C53.6206349,33.5905215 53.5530192,32.4104482 53.9345102,31.3131735 Z" id="Fill-2" fill="#6A878C"></path>
                <path d="M37.9908411,27.9662203 C38.5836413,28.1009002 39.1914248,28.1690141 39.7949823,28.1690141 C43.5915163,28.1690141 46.8348212,25.5822328 47.6842583,21.8754417 C48.1598815,19.7739721 47.7937515,17.6094198 46.6515641,15.781567 C45.5005405,13.9401688 43.7029304,12.6599365 41.5883663,12.1777208 C40.9924925,12.0399449 40.3831723,11.971831 39.7769255,11.971831 C35.9830808,11.971831 32.7428494,14.5601604 31.8964858,18.2669514 C31.4162523,20.3668729 31.7808456,22.5314253 32.9214962,24.3608261 C34.0740566,26.2053204 35.8751244,27.4855527 37.9908411,27.9662203 Z M35.4909375,19.099799 C35.9500408,17.0908251 37.7119214,15.6863623 39.7769255,15.6863623 C40.1084787,15.6863623 40.4431054,15.7258374 40.7719693,15.7997565 C41.9245297,16.0629239 42.9042061,16.7595437 43.5300464,17.7603541 C44.1470504,18.747619 44.3449066,19.9148441 44.0882698,21.0441421 C43.6368503,23.0198331 41.8311723,24.4529348 39.7949823,24.4529348 C39.4645816,24.4529348 39.1314917,24.4153947 38.803012,24.3410886 C37.6489148,24.0794692 36.670391,23.3843975 36.0445507,22.3835871 C35.4290835,21.3963221 35.232764,20.2306451 35.4909375,19.099799 Z" id="Fill-3" fill="#6A878C"></path>
                <g id="Group-7">
                    <mask id="mask-2" fill="white">
                        <use xlink:href="#path-1"></use>
                    </mask>
                    <g id="Clip-5"></g>
                    <path d="M23.7114943,32.4173348 C25.4011494,31.0811364 26.4636015,29.1731552 26.7030651,27.0438756 C26.9425287,24.9226225 26.3348659,22.833857 24.9896552,21.1632268 C23.4463602,19.2552456 21.145977,18.1606025 18.6766284,18.1606025 C16.8628352,18.1606025 15.0785441,18.7774859 13.6555556,19.8985013 C11.9643678,21.2304954 10.9015326,23.1354189 10.6605364,25.2627874 C10.4195402,27.3890093 11.0287356,29.4793036 12.3773946,31.1541381 C13.9172414,33.0636481 16.2191571,34.15982 18.6900383,34.15982 C20.5068966,34.1582912 22.2896552,33.5402612 23.7114943,32.4173348 Z M15.243295,28.8536295 C14.5145594,27.9489437 14.1850575,26.8202841 14.3153257,25.6748074 C14.4455939,24.5270374 15.0203065,23.4981341 15.9348659,22.776908 C16.7222222,22.1573492 17.6708812,21.8305616 18.6766284,21.8305616 C20.0279693,21.8305616 21.2869732,22.4260413 22.1249042,23.4622066 C22.8494253,24.3642169 23.1785441,25.4898188 23.0482759,26.6333845 C22.9195402,27.7845943 22.343295,28.8177019 21.4275862,29.5419857 C20.6417625,30.1615445 19.6957854,30.489861 18.6915709,30.489861 C17.3386973,30.489861 16.0816092,29.8928524 15.243295,28.8536295 Z" id="Fill-4" fill="#6A878C" mask="url(#mask-2)"></path>
                    <path d="M98.9252874,14.4654177 C98.608046,14.1443632 98.0409962,13.7636842 97.145977,13.7636842 C96.0965517,13.7636842 93.3099617,13.7636842 76.3827586,28.1324034 C76.043295,28.4205881 75.6988506,28.7133592 75.3547893,29.0088058 C72.3298851,21.1376189 67.0168582,14.1221951 60.1697318,9.04609366 C52.3183908,3.22774467 42.9701149,0.150589864 33.1340996,0.147532202 L33.1268199,0.147532202 C26.4908046,0.147532202 18.4222222,2.46180029 12.0704981,6.18679728 C4.28505747,10.7522692 -0.00153256705,16.8588028 -5.82335151e-22,23.3788853 C0.0030651341,31.2512189 4.45402299,34.5447033 8.03103448,37.1903455 C10.9463602,39.3494372 13.2498084,41.0529373 13.251341,44.7867251 C13.2528736,48.5224239 10.9494253,50.2243951 8.03563218,52.3804292 C4.46015326,55.0245426 0.00881226054,58.3149693 0.0118773946,66.1888317 C0.0134099617,72.7089142 4.30268199,78.8169766 12.0900383,83.387035 C18.4463602,87.1162363 26.5191571,89.4350909 33.156705,89.4366197 L33.1701149,89.4366197 C45.2183908,89.4366197 56.543295,84.7977639 65.0609195,76.3742867 C73.4704981,68.0582099 78.1475096,57.0353377 78.2701149,45.2900927 C81.1256705,42.0485885 83.8915709,38.8269592 86.4180077,35.7899362 C90.7386973,30.5972613 94.0597701,26.3111833 96.2927203,23.0532443 C99.248659,18.7385007 100.543295,16.0913296 98.9252874,14.4654177 Z M62.4716475,73.7687763 C54.6471264,81.5073372 44.2425287,85.7666606 33.1701149,85.7666606 L33.1582375,85.7666606 C21.2942529,85.763603 3.69386973,77.5419315 3.6908046,66.1876851 C3.68773946,60.1617973 6.86360153,57.8131305 10.2264368,55.3272511 C13.3681992,53.0026634 16.9302682,50.367723 16.9302682,44.7867251 C16.9272031,39.2045805 13.3651341,36.5692579 10.2206897,34.2431413 C6.85747126,31.7545865 3.68007663,29.4043909 3.6789272,23.3788853 C3.67739464,16.4062688 10.1038314,11.5961839 13.935249,9.34918442 C19.6659004,5.98843144 27.1984674,3.81596244 33.1268199,3.81596244 L33.1340996,3.81596244 C42.1724138,3.8190201 50.7632184,6.64659323 57.9754789,11.991769 C64.6283525,16.9214849 69.7065134,23.8428855 72.3808429,31.575331 C64.4038314,38.5238684 55.7651341,46.5353256 49.332567,52.9728512 C38.6478927,54.3526213 37.1915709,61.456335 36.1275862,66.6742356 C35.2222222,71.1189298 34.6340996,73.2657909 31.194636,73.5421271 C30.3475096,73.6093957 29.6574713,74.2465361 29.5256705,75.0843355 C29.3942529,75.9217527 29.8536398,76.7415884 30.6394636,77.0653184 C30.859387,77.1566661 36.1187739,79.3004695 42.2624521,79.3004695 L42.2639847,79.3004695 C46.5455939,79.3004695 50.2183908,78.2643042 53.1804598,76.2233147 C56.8291188,73.7076231 59.3030651,69.7185205 60.5467433,64.3691405 C64.7509579,60.1273986 69.5536398,55.0123119 74.302682,49.7420489 C73.2084291,58.8148971 69.1045977,67.2085621 62.4716475,73.7687763 Z M56.8517241,64.022478 C54.9030651,71.7266402 50,75.6320392 42.2639847,75.6308926 L42.2624521,75.6308926 C40.2222222,75.6308926 38.2693487,75.3530276 36.6260536,75.0082762 C38.5881226,73.0120049 39.2,70.008234 39.7314176,67.4073101 C40.7417625,62.4504574 41.6980843,57.7611502 49.5164751,56.6473968 L56.8517241,64.022478 Z M82.2482759,35.0480709 C74.9582375,43.7119568 66.1337165,53.4418202 58.8689655,60.8409805 L57.7452107,59.7092633 L52.7823755,54.7214518 C59.3689655,48.1803479 67.8176245,40.381016 75.7019157,33.5566962 C76.6206897,32.7609396 77.5337165,31.9755026 78.4333333,31.2095582 C87.5823755,23.4266612 92.3762452,20.0387715 94.8214559,18.5653605 C93.3609195,21.0198989 89.9980843,25.8391567 82.2482759,35.0480709 Z" id="Fill-6" fill="#6A878C" mask="url(#mask-2)"></path>
                </g>
            </g>
        </g>
    </g>
</svg>