<?xml version="1.0" encoding="UTF-8"?>
<svg width="12px" height="21px" viewBox="0 0 12 21" version="1.1" xmlns="http://www.w3.org/2000/svg" xmlns:xlink="http://www.w3.org/1999/xlink">
    <!-- Generator: Sketch 49.1 (51147) - http://www.bohemiancoding.com/sketch -->
    <title>Line 2</title>
    <desc>Created with Sketch.</desc>
    <defs></defs>
    <g id="Курс" stroke="none" stroke-width="1" fill="none" fill-rule="evenodd" stroke-linecap="square">
        <g id="course-new" transform="translate(-1232.000000, -5954.000000)" stroke="#ffffff" stroke-width="2">
            <g id="Myths" transform="translate(0.000000, 5820.000000)">
                <g id="Group-27">
                    <g id="Group-15" transform="translate(1149.000000, 120.000000)">
                        <g id="Group-5" transform="translate(87.000000, 24.000000) rotate(-540.000000) translate(-87.000000, -24.000000) translate(63.000000, 0.000000)">
                            <polyline id="Line-2" transform="translate(26.250000, 23.250000) scale(-1, 1) rotate(-45.000000) translate(-26.250000, -23.250000) " points="20.25 29.25 32.25 29.25 32.25 17.25"></polyline>
                        </g>
                    </g>
                </g>
            </g>
        </g>
    </g>
</svg>