<?xml version="1.0" encoding="UTF-8"?>
<svg width="27px" height="15px" viewBox="0 0 27 15" version="1.1" xmlns="http://www.w3.org/2000/svg" xmlns:xlink="http://www.w3.org/1999/xlink">
    <!-- Generator: Sketch 49.1 (51147) - http://www.bohemiancoding.com/sketch -->
    <title>Arrow</title>
    <desc>Created with Sketch.</desc>
    <defs></defs>
    <g id="Курс" stroke="none" stroke-width="1" fill="none" fill-rule="evenodd" stroke-linecap="square">
        <g id="course-new" transform="translate(-1216.000000, -91.000000)" stroke="#FFFFFF" stroke-width="2">
            <g id="Header">
                <g id="Group-13" transform="translate(1110.000000, 58.000000)">
                    <g id="Group-4" transform="translate(31.000000, 31.000000)">
                        <g id="Arrow" transform="translate(76.000000, 3.000000)">
                            <path d="M0.5,6.5 L23.5,6.5" id="Line-4"></path>
                            <polyline id="Line-5" transform="translate(18.449747, 6.449747) rotate(-45.000000) translate(-18.449747, -6.449747) " points="14.4497475 10.4497475 22.4497475 10.4497475 22.4497475 2.44974747"></polyline>
                        </g>
                    </g>
                </g>
            </g>
        </g>
    </g>
</svg>